module jcompteserver

go 1.20

require github.com/jmoiron/sqlx v1.3.5

require (
	github.com/dgrijalva/jwt-go v3.2.0+incompatible
	github.com/gorilla/mux v1.8.0
)

require github.com/lib/pq v1.10.9

require gopkg.in/yaml.v2 v2.4.0 // indirect
